{
    "time": "2023-04-17 19:29:56",
    "parameters": {
        "metro": 0.2,
        "voiture": 0.35,
        "teletravail": 0.05,
        "velo": 0.3,
        "bus": 0.1,
        "taille metro": 55,
        "taille voiture": 75,
        "taille teletravail": 3,
        "taille bus": 30,
        "taille velo": 80,
        "vitesse teletravail": 0.1,
        "nb jours": 17,
        "nb agents": 200,
        "nb simul": 200,
        "* self.pref": 0.35,
        "* tps trajet": 5,
        "* pref du jour": 0.4,
        "* confort": 0.45,
        "info sur n jours": 7
    }
}